%YAML 1.1
%TAG !u! tag:unity3d.com,2011:
--- !u!114 &11400000
MonoBehaviour:
  m_ObjectHideFlags: 0
  m_CorrespondingSourceObject: {fileID: 0}
  m_PrefabInstance: {fileID: 0}
  m_PrefabAsset: {fileID: 0}
  m_GameObject: {fileID: 0}
  m_Enabled: 1
  m_EditorHideFlags: 0
  m_Script: {fileID: 11500000, guid: a4a5e6765a93fc949908ae01d688fc28, type: 3}
  m_Name: Future Garrison
  m_EditorClassIdentifier: 
  title: Future Garrison
  type: Structure - Future
  description: 'STRUCTURE (Structures can''t attack or block)

    TRAIN (1, 1):
    At the beginning of your next turn, createa 1/1 Future Marine with Reach and
    Haste.

    TRAIN (2, 2): At the beginning of your next turn, create a 2/2 Future
    Marine with Cleave and Haste.

    TRAIN (3, 3): At the beginning of your next
    turn, create a 3/3 Future Marine  of your next turn, create a 3/3 Future Marine
    with Cleave and Haste.

'
  artwork: {fileID: 21300000, guid: b739ddb29717dd84f9a935fdab2488ef, type: 3}
  resourceCost: 4
  actionPoints: 3
  damagePoints: 4
  hitPoints: 0
