%YAML 1.1
%TAG !u! tag:unity3d.com,2011:
--- !u!114 &11400000
MonoBehaviour:
  m_ObjectHideFlags: 0
  m_CorrespondingSourceObject: {fileID: 0}
  m_PrefabInstance: {fileID: 0}
  m_PrefabAsset: {fileID: 0}
  m_GameObject: {fileID: 0}
  m_Enabled: 1
  m_EditorHideFlags: 0
  m_Script: {fileID: 11500000, guid: a4a5e6765a93fc949908ae01d688fc28, type: 3}
  m_Name: Palace Archives
  m_EditorClassIdentifier: 
  title: Palace Archives
  type: Resource - Infrastructure
  rarity: Rare
  description: 'When Palace Archives enters play, draw a card from your Stock pile.


    1
    AP: Add 1 basic resource.

    Pay (4), then 1 AP: Draw a card from your stock
    pile.'
  artwork: {fileID: 21300000, guid: a98ea77d8efa369428afc411968e45b4, type: 3}
  resourceCost: 0
  actionPoints: 1
  damagePoints: 0
  hitPoints: 0
