%YAML 1.1
%TAG !u! tag:unity3d.com,2011:
--- !u!114 &11400000
MonoBehaviour:
  m_ObjectHideFlags: 0
  m_CorrespondingSourceObject: {fileID: 0}
  m_PrefabInstance: {fileID: 0}
  m_PrefabAsset: {fileID: 0}
  m_GameObject: {fileID: 0}
  m_Enabled: 1
  m_EditorHideFlags: 0
  m_Script: {fileID: 11500000, guid: a4a5e6765a93fc949908ae01d688fc28, type: 3}
  m_Name: Watchtower Garrison
  m_EditorClassIdentifier: 
  title: Watchtower Garrison
  type: Structure - Fortification
  rarity: Uncommon
  description: 'Watchtower Garrison enters play with two 1/1 counters on it.

    Watchtower
    Garrison gets 1 AP for each 1/1 counter on it.

    When Watchtower Garrison
    dies, creature a 1/1 Soldier unit for each 1/1 counter on Watchtower Garrison.'
  artwork: {fileID: 21300000, guid: 883d74572a6ff054f959b07e4ded29f5, type: 3}
  resourceCost: 2
  actionPoints: 0
  damagePoints: 0
  hitPoints: 2
